[
    {
        "title": "próba mikrofonu... to znaczy, Atoma",
        "author": "Grzesiek11",
        "timestamp": 1641338386,
        "id": "próba_mikrofonu"
    },
    {
        "title": "nowy rok, nowa strona",
        "author": "Grzesiek11",
        "timestamp": 1641218842,
        "id": "nowy_rok_nowa_strona"
    }
]